{
    "$schema": "../../../src/lib/types/IShot.json",
    "animation": {
        "Camera": {
            "type": "camera",
            "keys": [
                {
                    "camera": {
                        "pivotPoint": "UCX_pcStart_chapter2_sub1",
                        "float": {
                            "distance": 4
                        }
                    }
                }
            ]
        }
    },
    "keepHotspots": true
}