{
    "$schema": "../../../src/lib/types/IShot.json",
    "animation": {
        "Camera": {
            "type": "camera",
            "keys": [
                {
                    "camera": {
                        "pivotPoint": "UCX_pcStart_chapter1_sub2",
                        "float": {
                            "distance": 4
                        }
                    }
                }
            ]
        }
    },
    "keepHotspots": true,
    "shotGenericPath": "pre/s/pcStart/d818613ba94443ea847e304774bddbbf$__pcStart_chapter1_sub2",
    "hotspotsMeta": {
        "disinherit": true
    }
}