{
    "$schema": "../../../src/lib/types/IShot.json",
    "master": "isMaster",
    "animation": {
        "env": {
            "type": "env",
            "keys": [
                {
                    "env": {
                        "skyboxIntensity": 1,
                        "skyboxRotation": {
                            "x": 0,
                            "y": 0,
                            "z": 0
                        }
                    }
                }
            ]
        },
        "Camera": {
            "type": "camera",
            "keys": [
                {
                    "camera": {
                        "pivotPoint": "Sphere_2",
                        "fov": 90,
                        "float": {
                            "distance": 2,
                            "pitch": 80,
                            "yaw": 1
                        }
                    }
                }
            ]
        }
    },
    "load": [
        "d/pcStart.glb"
    ],
    "setEnabled": [
        "main"
    ],
    "enabledState": true,
    "animGraph": {
        "cube": [
            {
                "name": "cube@jump",
                "speed": 1,
                "crossfade": 200
            },
            {
                "name": "cube@rest",
                "speed": 0.1,
                "crossfade": 500
            },
            {
                "name": "cube@rotate",
                "speed": 1,
                "crossfade": 500
            }
        ]
    },
    "hotspots": {
        "UCX_pcStart_chapter1": {
            "content": "pcStart_chapter1",
            "classes": [
                "spot",
                "neutral",
                "large",
                "top",
                "right"
            ],
            "expanded": true
        },
        "UCX_pcStart": {
            "content": "pcStart",
            "classes": [
                "spot",
                "neutral",
                "large",
                "top",
                "left"
            ],
            "expanded": true
        }
    },
    "background": {
        "X": 20,
        "Y": -50,
        "colors": [
            "#e2e8f0, #64748b"
        ]
    },
    "shotGenericPath": "pre/s/pcStart/eaa8bde853d1447ab7aca601eaf15668$__pcStart",
    "hotspotsMeta": {
        "disinherit": false
    }
}